<?xml version="1.0" encoding="utf-8"?>
<!-- Generator: Adobe Illustrator 21.0.0, SVG Export Plug-In . SVG Version: 6.00 Build 0)  -->
<svg version="1.1" id="Ebene_1" xmlns="http://www.w3.org/2000/svg" xmlns:xlink="http://www.w3.org/1999/xlink" x="0px" y="0px"
	 viewBox="0 0 100 100" style="enable-background:new 0 0 100 100;" xml:space="preserve">
<style type="text/css">
	.st0{fill:#CCCCCC;}
	.st1{fill:#B3B3B3;}
	.st2{fill:#E6E6E6;}
	.st3{fill:#F2F2F2;}
</style>
<g>
	<path d="M49.2,86.3C33.1,69,17,51.7,0.8,34.3c0.4-0.5,0.8-0.9,1.2-1.3c6.4-6.1,12.7-12.2,19.2-18.2c0.7-0.6,1.8-1.1,2.7-1.1
		c17.6-0.1,35.1-0.1,52.7,0c0.8,0,1.8,0.4,2.4,0.9c6.5,6.1,13,12.3,19.5,18.4c1.2,1.1,1.3,1.9,0.1,3C82.2,52.7,65.9,69.5,49.6,86.1
		C49.6,86.2,49.5,86.2,49.2,86.3z M82.6,35c-6.2,0-11.9,0-17.8,0c-4.5,15.5-9,30.9-13.5,46.4c0.1,0,0.2,0.1,0.3,0.1
		C61.9,66.1,72.2,50.8,82.6,35z M17.1,34.9c10.2,15.8,20.2,31.2,30.2,46.6c-0.8-4.2-2-8.3-3.1-12.4c-3.1-10.9-6.2-21.9-9.4-32.8
		c-0.2-0.6-0.9-1.4-1.4-1.4C28.1,34.9,22.8,34.9,17.1,34.9z M98.4,35c-4.9,0-9.1-0.1-13.4,0.1c-0.8,0-1.9,0.6-2.3,1.2
		c-9.7,14.5-19.4,29-29.1,43.6c-0.2,0.4-0.4,0.8-0.6,1.2c0.1,0.1,0.2,0.1,0.3,0.2C68.2,66,83.1,50.7,98.4,35z M48.7,82.5
		c0.1,0,0.2,0,0.3,0c0-15.8,0-31.6,0-47.4c-4.6,0-9.1,0-13.7,0C39.8,51,44.3,66.7,48.7,82.5z M64,35c-4.8,0-9.4,0-14.1,0
		c0,15.8,0,31.6,0,47.3c0.1,0,0.2,0,0.3,0.1C54.9,66.7,59.4,51,64,35z M46.2,82c0.1-0.1,0.2-0.2,0.3-0.3c-0.3-0.5-0.6-1.1-1-1.6
		C37,67,28.6,54,20.1,40.9c-1.3-2-2.2-4.7-4.1-5.7c-1.9-1-4.7-0.3-7.1-0.3c-2.1,0-4.2,0-6.6,0C17.1,50.8,31.7,66.4,46.2,82z
		 M64.6,34.2c4.2-6.6,8.4-13.1,12.6-19.7c-9.3,0-18.2,0-27.4,0C54.7,21.2,59.6,27.6,64.6,34.2z M22.6,14.5c4.1,6.4,8.1,12.6,12.3,19
		c4.8-6.4,9.4-12.6,14.3-19C40,14.5,31.5,14.5,22.6,14.5z M22.2,15.4c-1.9,6.5-3.7,12.5-5.5,18.6c5.9,0,11.6,0,17.5,0
		C30.2,27.8,26.3,21.7,22.2,15.4z M77.6,15.2c-4.1,6.5-8,12.6-12.1,18.9c5.9,0,11.5,0,17.3,0C81.1,27.9,79.4,21.8,77.6,15.2z
		 M78.8,15.6c-0.1,0.3-0.1,0.5-0.1,0.6c1.6,5.7,3.1,11.5,4.7,17.2c0.1,0.4,1,0.9,1.5,0.9c3.1,0.1,6.2,0.1,9.3,0.1c1.2,0,2.5,0,4.3,0
		C91.7,27.8,85.3,21.7,78.8,15.6z M21.3,16.1C21.2,16,21,16,20.9,15.9C14.7,21.8,8.5,27.8,2.2,33.7c4.4,0.4,8.5,0.4,12.6,0.4
		c0.4,0,1.1-0.4,1.2-0.8C17.9,27.6,19.6,21.8,21.3,16.1z M49,34.1c0-6,0-11.9,0-18.2c-4.7,6.2-9,12.1-13.6,18.2
		C40.1,34.1,44.5,34.1,49,34.1z M50,34.1c4.6,0,8.9,0,13.6,0c-4.6-6-8.9-11.8-13.6-17.9C50,22.4,50,28.2,50,34.1z"/>
	<path class="st0" d="M82.6,35C72.2,50.8,61.9,66.1,51.7,81.5c-0.1,0-0.2-0.1-0.3-0.1c4.5-15.4,9-30.9,13.5-46.4
		C70.7,35,76.4,35,82.6,35z"/>
	<path class="st0" d="M17.1,34.9c5.7,0,11,0,16.3,0.1c0.5,0,1.2,0.8,1.4,1.4c3.2,10.9,6.3,21.8,9.4,32.8c1.2,4.1,2.3,8.2,3.1,12.4
		C37.3,66.1,27.3,50.7,17.1,34.9z"/>
	<path class="st1" d="M98.4,35c-15.3,15.7-30.2,31-45,46.3c-0.1-0.1-0.2-0.1-0.3-0.2c0.2-0.4,0.4-0.8,0.6-1.2
		C63.4,65.3,73,50.8,82.7,36.3c0.4-0.6,1.5-1.2,2.3-1.2C89.3,34.9,93.5,35,98.4,35z"/>
	<path class="st2" d="M48.7,82.5C44.3,66.7,39.8,51,35.3,35c4.6,0,9.1,0,13.7,0c0,15.8,0,31.6,0,47.4C48.9,82.5,48.8,82.5,48.7,82.5
		z"/>
	<path class="st2" d="M64,35c-4.6,16-9.2,31.7-13.8,47.3c-0.1,0-0.2,0-0.3-0.1c0-15.7,0-31.5,0-47.3C54.7,35,59.2,35,64,35z"/>
	<path class="st1" d="M46.2,82C31.7,66.4,17.1,50.8,2.3,34.8c2.4,0,4.5,0,6.6,0c2.4,0,5.2-0.7,7.1,0.3c1.9,1,2.8,3.7,4.1,5.7
		C28.6,54,37,67,45.5,80.1c0.3,0.5,0.7,1.1,1,1.6C46.4,81.8,46.3,81.9,46.2,82z"/>
	<path class="st3" d="M64.6,34.2c-5-6.6-9.8-13-14.9-19.7c9.2,0,18.2,0,27.4,0C72.9,21.1,68.8,27.6,64.6,34.2z"/>
	<path class="st3" d="M22.6,14.5c8.9,0,17.5,0,26.5,0c-4.8,6.4-9.4,12.6-14.3,19C30.7,27.1,26.7,20.9,22.6,14.5z"/>
	<path class="st0" d="M22.2,15.4c4.1,6.4,8,12.4,12,18.6c-6,0-11.6,0-17.5,0C18.6,27.8,20.3,21.8,22.2,15.4z"/>
	<path class="st0" d="M77.6,15.2c1.8,6.6,3.5,12.7,5.2,18.9c-5.8,0-11.4,0-17.3,0C69.6,27.8,73.5,21.7,77.6,15.2z"/>
	<path class="st1" d="M78.8,15.6c6.5,6.2,12.9,12.2,19.8,18.8c-1.8,0-3,0-4.3,0c-3.1,0-6.2,0-9.3-0.1c-0.5,0-1.4-0.5-1.5-0.9
		c-1.6-5.7-3.2-11.4-4.7-17.2C78.7,16,78.7,15.9,78.8,15.6z"/>
	<path class="st1" d="M21.3,16.1c-1.7,5.7-3.4,11.5-5.2,17.2c-0.1,0.4-0.8,0.8-1.2,0.8c-4.1,0.1-8.3,0-12.6-0.4
		c6.2-5.9,12.5-11.9,18.7-17.8C21,16,21.2,16,21.3,16.1z"/>
	<path class="st2" d="M49,34.1c-4.5,0-8.9,0-13.6,0c4.6-6.1,9-11.9,13.6-18.2C49,22.2,49,28,49,34.1z"/>
	<path class="st2" d="M50,34.1c0-5.9,0-11.6,0-17.9c4.7,6.1,9,11.9,13.6,17.9C58.9,34.1,54.5,34.1,50,34.1z"/>
</g>
<g>
</g>
<g>
</g>
<g>
</g>
<g>
</g>
<g>
</g>
</svg>
